https://habr.com/ru/
https://habr.com/ru/
https://habr.com/ru/news/
https://habr.com/ru/users/
https://habr.com/ru/hubs/
https://habr.com/ru/companies/
https://habr.com/ru/sandbox/
https://habr.com/ru/auth/login/
https://habr.com/ru/auth/register/
https://habr.com/ru/users/m1rko/
https://habr.com/ru/hub/rust/
https://habr.com/ru/hub/system_programming/
https://habr.com/ru/post/439066/
https://habr.com/ru/post/436606/
https://habr.com/ru/post/436606/
https://habr.com/ru/post/436606/
https://habr.com/ru/post/436606/
https://habr.com/ru/search/?q=%5B%D1%81%D1%82%D1%80%D0%B0%D0%BD%D0%B8%D1%87%D0%BD%D0%B0%D1%8F%20%D0%BE%D1%80%D0%B3%D0%B0%D0%BD%D0%B8%D0%B7%D0%B0%D1%86%D0%B8%D1%8F%20%D0%BF%D0%B0%D0%BC%D1%8F%D1%82%D0%B8%5D&target_type=posts
https://habr.com/ru/search/?q=%5B%D0%BE%D0%BF%D0%B5%D1%80%D0%B0%D1%86%D0%B8%D0%BE%D0%BD%D0%BD%D0%B0%D1%8F%20%D1%81%D0%B8%D1%81%D1%82%D0%B5%D0%BC%D0%B0%5D&target_type=posts
https://habr.com/ru/search/?q=%5Bx86%5D&target_type=posts
https://habr.com/ru/search/?q=%5B%D1%82%D1%80%D0%B0%D0%BD%D1%81%D0%BB%D1%8F%D1%86%D0%B8%D1%8F%20%D0%B0%D0%B4%D1%80%D0%B5%D1%81%D0%BE%D0%B2%5D&target_type=posts
https://habr.com/ru/search/?q=%5B%D0%B2%D0%B8%D1%80%D1%82%D1%83%D0%B0%D0%BB%D1%8C%D0%BD%D0%B0%D1%8F%20%D0%BF%D0%B0%D0%BC%D1%8F%D1%82%D1%8C%5D&target_type=posts
https://habr.com/ru/search/?q=%5B%D1%8F%D0%B4%D1%80%D0%BE%20%D0%9E%D0%A1%5D&target_type=posts
https://habr.com/ru/search/?q=%5B%D1%80%D0%B5%D0%BA%D1%83%D1%80%D1%81%D0%B8%D0%B2%D0%BD%D1%8B%D0%B5%20%D1%82%D0%B0%D0%B1%D0%BB%D0%B8%D1%86%D1%8B%20%D1%81%D1%82%D1%80%D0%B0%D0%BD%D0%B8%D1%86%5D&target_type=posts
https://habr.com/ru/search/?q=%5B%D0%BE%D1%82%D0%BE%D0%B1%D1%80%D0%B0%D0%B6%D0%B5%D0%BD%D0%B8%D0%B5%20%D0%BF%D0%BE%D0%BB%D0%BD%D0%BE%D0%B9%20%D0%BF%D0%B0%D0%BC%D1%8F%D1%82%D0%B8%5D&target_type=posts
https://habr.com/ru/post/445600/
https://habr.com/ru/post/445600/#comments
https://habr.com/ru/post/445662/
https://habr.com/ru/post/445662/#comments
https://habr.com/ru/company/maxilect/blog/445744/
https://habr.com/ru/company/maxilect/blog/445744/#comments
https://habr.com/ru/post/445472/
https://habr.com/ru/post/445472/#comments
https://habr.com/ru/company/Voximplant/blog/445390/
https://habr.com/ru/company/Voximplant/blog/445390/#comments
https://habr.com/ru/post/445762/
https://habr.com/ru/post/445762/#comments
https://habr.com/ru/post/445618/#comments
https://habr.com/ru/users/m1rko/
https://habr.com/ru/info/help/karma/
https://habr.com/ru/info/help/karma/#rating
https://habr.com/ru/users/m1rko/subscription/followers/
https://habr.com/ru/post/351774/
https://habr.com/ru/post/351774#comments
https://habr.com/ru/post/351082/
https://habr.com/ru/post/351082#comments
https://habr.com/ru/post/211470/
https://habr.com/ru/post/211470#comments
https://habr.com/ru/auth/login/
https://habr.com/ru/post/445192/
https://habr.com/ru/post/445192/#comments
https://habr.com/ru/company/pochtoy/blog/445302/
https://habr.com/ru/company/pochtoy/blog/445302/#comments
https://habr.com/ru/post/445662/
https://habr.com/ru/post/445662/#comments
https://habr.com/ru/post/445470/
https://habr.com/ru/post/445470/#comments
https://habr.com/ru/post/445488/
https://habr.com/ru/post/445488/#comments
https://habr.com/ru/post/445472/
https://habr.com/ru/post/445472/#comments
https://habr.com/ru/company/skbkontur/blog/444484/
https://habr.com/ru/company/skbkontur/blog/444484/#comments
https://habr.com/ru/company/vivaldi/blog/445502/
https://habr.com/ru/company/vivaldi/blog/445502/#comments
https://habr.com/ru/company/mosigra/blog/445524/
https://habr.com/ru/company/mosigra/blog/445524/#comments
https://habr.com/ru/post/445662/
https://habr.com/ru/post/445662/#comments
https://habr.com/ru/post/444916/
https://habr.com/ru/post/444916/#comments
https://habr.com/ru/post/444956/
https://habr.com/ru/post/444956/#comments
https://habr.com/ru/company/mosigra/blog/445088/
https://habr.com/ru/company/mosigra/blog/445088/#comments
https://habr.com/ru/post/444882/
https://habr.com/ru/post/444882/#comments
https://habr.com/ru/post/445380/
https://habr.com/ru/post/445380/#comments
https://habr.com/ru/post/445472/
https://habr.com/ru/post/445472/#comments
https://habr.com/ru/post/445600/
https://habr.com/ru/post/445600/#comments
https://habr.com/ru/company/skbkontur/blog/444484/
https://habr.com/ru/company/skbkontur/blog/444484/#comments
https://habr.com/ru/post/444970/
https://habr.com/ru/post/444970/#comments
https://habr.com/ru/post/445414/
https://habr.com/ru/post/445414/#comments
https://habr.com/ru/post/444916/
https://habr.com/ru/post/444916/#comments
https://habr.com/ru/post/444882/
https://habr.com/ru/post/444882/#comments
https://habr.com/ru/company/jugru/blog/444652/
https://habr.com/ru/company/jugru/blog/444652/#comments
https://habr.com/ru/post/444778/
https://habr.com/ru/post/444778/#comments
https://habr.com/ru/post/444716/
https://habr.com/ru/post/444716/#comments
https://habr.com/ru/post/443764/
https://habr.com/ru/post/443764/#comments
https://habr.com/ru/post/443466/
https://habr.com/ru/post/443466/#comments
https://habr.com/ru/post/443694/
https://habr.com/ru/post/443694/#comments
https://habr.com/ru/post/444916/
https://habr.com/ru/post/444916/#comments
https://habr.com/ru/post/442112/
https://habr.com/ru/post/442112/#comments
https://habr.com/ru/auth/login/
https://habr.com/ru/auth/register/
https://habr.com/ru/posts/top/
https://habr.com/ru/news/
https://habr.com/ru/hubs/
https://habr.com/ru/companies/
https://habr.com/ru/users/
https://habr.com/ru/sandbox/
https://habr.com/ru/info/help/rules/
https://habr.com/ru/info/help/
https://habr.com/ru/info/topics/madskillz/
https://habr.com/ru/info/about/
https://habr.com/ru/feedback/
